+---|a|----+..............................................................................
|+--|acea|--+.............................................................................
||+-------------------|aesdca|-------------------+........................................
|||+----|af|----+................................|........................................
||||+--------|asfdecfdc|---------+...............|........................................
||+||+----------------------|assbcfa|-----------------------+.............................
||.|||+-|b|-+...............................................|.............................
||.||||+--|bd|--+...........................................|.............................
||.||+||+-|c|-+.|-------------------------------------------+.............................
||.||.|||+--|cb|--+..............|........................................................
||.||.+|||+-----|cd|------+......|........................................................
||.||..||||+--|d|--+......|......|........................................................
+|.|+--||+||+-|daf|-+.....|------+........................................................
.|.|...||.|||+-------------------------|dsc|-------------------------+....................
.+-|...||.||||+--|e|--+..............................................|....................
...|...+|.|+|||+-|f|-+|..............................................|....................
...|....|.|.||||+----------------|faabfaffdd|-----------------+......|....................
...|....|.|.|||||+----------|fassffd|----------+..............|......|....................
...+----|.|.|+||||+--|fg|---+..................|..............|------+....................
........|.|.|.||+||+--|fssdaddfd|--+...........|--------------+...........................
........|.+-|.||.|||+--|g|---+.....|...........|..........................................
........|...|.||.||||+--|gaasa|---+|...........|..........................................
........|...|.||.|+|||+-|gbfaada|--+...........|..........................................
........+---|.|+-|.||||+-|h|--+....|...........|..........................................
............|.|..+-|||||+--------------------------|hcddddcfbd|--------------------------+
............|.+----||||||+-----------|hsdaaasge|-----------+.............................|
............|......||||+||+-|s|-+..........................|.............................|
............+------|+|+-|||+---|sa|----+...................|.............................|
...................|.|..++||+-|sdsda|-+|-------------------+-----------------------------+
...................|.|....|||+--|sfd|--+..................................................
...................|.|....||||.........|..................................................
...................|.|....|+||.........|..................................................
...................+-+----|.||.........|..................................................
..........................+-|+---------+..................................................
............................|.........|...................................................
............................|.........|...................................................
............................|.........|...................................................
............................+---------+...................................................
..........................................................................................
..........................................................................................
..........................................................................................
..........................................................................................
..........................................................................................
..........................................................................................
..........................................................................................
..........................................................................................
..........................................................................................
..........................................................................................
..........................................................................................
..........................................................................................
..........................................................................................
..........................................................................................
..........................................................................................
..........................................................................................
..........................................................................................
..........................................................................................
..........................................................................................
..........................................................................................
..........................................................................................
..........................................................................................
..........................................................................................
..........................................................................................
..........................................................................................
..........................................................................................
..........................................................................................
..........................................................................................
..........................................................................................
..........................................................................................
..........................................................................................
..........................................................................................
..........................................................................................
..........................................................................................
..........................................................................................
..........................................................................................
..........................................................................................
..........................................................................................
..........................................................................................
..........................................................................................
..........................................................................................
..........................................................................................
